<?xml version="1.0" encoding="UTF-8" standalone="no"?>
<!-- Created with Inkscape (http://www.inkscape.org/) -->

<svg
   xmlns:dc="http://purl.org/dc/elements/1.1/"
   xmlns:cc="http://creativecommons.org/ns#"
   xmlns:rdf="http://www.w3.org/1999/02/22-rdf-syntax-ns#"
   xmlns:svg="http://www.w3.org/2000/svg"
   xmlns="http://www.w3.org/2000/svg"
   xmlns:sodipodi="http://sodipodi.sourceforge.net/DTD/sodipodi-0.dtd"
   xmlns:inkscape="http://www.inkscape.org/namespaces/inkscape"
   width="506.1929"
   height="266.70132"
   viewBox="0 0 133.9302 70.564723"
   version="1.1"
   id="svg8"
   inkscape:version="0.92.4 (5da689c313, 2019-01-14)"
   sodipodi:docname="nodian-alphabet.svg">
  <defs
     id="defs2">
    <filter
       style="color-interpolation-filters:sRGB"
       id="filter28"
       inkscape:label="charcoal">
      <feTurbulence
         id="feTurbulence30"
         result="result1"
         baseFrequency="1"
         seed="0"
         numOctaves="8"
         type="fractalNoise" />
      <feComposite
         id="feComposite841"
         result="result3"
         in2="result1"
         operator="in"
         in="SourceGraphic" />
      <feColorMatrix
         id="feColorMatrix843"
         result="result4"
         values="1 0 0 0 0 0 1 0 0 0 0 0 1 0 0 0 0 0 16 -5 " />
      <feDisplacementMap
         in2="result1"
         id="feDisplacementMap32"
         in="result4"
         scale="0.5"
         xChannelSelector="R"
         yChannelSelector="G"
         result="result2" />
    </filter>
  </defs>
  <sodipodi:namedview
     id="base"
     pagecolor="#ffffff"
     bordercolor="#666666"
     borderopacity="1.0"
     inkscape:pageopacity="0.0"
     inkscape:pageshadow="2"
     inkscape:zoom="2.0000457"
     inkscape:cx="253.11861"
     inkscape:cy="133.32031"
     inkscape:document-units="mm"
     inkscape:current-layer="layer1"
     showgrid="true"
     inkscape:snap-grids="true"
     inkscape:pagecheckerboard="true"
     fit-margin-top="16"
     fit-margin-left="16"
     fit-margin-right="16"
     fit-margin-bottom="16"
     units="px"
     inkscape:window-width="1366"
     inkscape:window-height="718"
     inkscape:window-x="0"
     inkscape:window-y="21"
     inkscape:window-maximized="1">
    <inkscape:grid
       type="xygrid"
       id="grid3680"
       originx="53.078919"
       originy="-253.78098" />
  </sodipodi:namedview>
  <metadata
     id="metadata5">
    <rdf:RDF>
      <cc:Work
         rdf:about="">
        <dc:format>image/svg+xml</dc:format>
        <dc:type
           rdf:resource="http://purl.org/dc/dcmitype/StillImage" />
        <dc:title />
      </cc:Work>
    </rdf:RDF>
  </metadata>
  <g
     inkscape:label="Layer 1"
     inkscape:groupmode="layer"
     id="layer1"
     transform="translate(53.078922,27.345748)">
    <g
       id="g4677"
       inkscape:export-xdpi="12.54"
       inkscape:export-ydpi="12.54"
       style="stroke:#ffffff;stroke-width:0.6263274;stroke-linecap:round;stroke-linejoin:round;stroke-miterlimit:4;stroke-dasharray:none;stroke-opacity:1"
       transform="matrix(4.7898273,0,0,4.7898273,-52.647514,-30.107558)"
       inkscape:export-filename="/home/warr/.minetest/games/nodecore/mods/nc_writing/textures/nc_writing_glyph_cav.png">
      <path
         inkscape:connector-curvature="0"
         id="path3684"
         d="M 1.3229166,7.2812499 3.96875,1.9895833 6.6145832,7.2812499"
         style="color:#000000;display:inline;overflow:visible;visibility:visible;fill:none;fill-rule:evenodd;stroke:#ffffff;stroke-width:0.6263274;stroke-linecap:round;stroke-linejoin:round;stroke-miterlimit:4;stroke-dasharray:none;stroke-dashoffset:0;stroke-opacity:1;marker:none;marker-start:none;marker-mid:none;marker-end:none;enable-background:accumulate" />
    </g>
    <g
       id="g4681"
       transform="matrix(4.7898273,0,0,4.7898273,-46.31097,-30.107558)"
       inkscape:export-xdpi="12.54"
       inkscape:export-ydpi="12.54"
       style="stroke:#ffffff;stroke-width:0.6263274;stroke-linecap:round;stroke-linejoin:round;stroke-miterlimit:4;stroke-dasharray:none;stroke-opacity:1"
       inkscape:export-filename="/home/warr/.minetest/games/nodecore/mods/nc_writing/textures/nc_writing_glyph_mew.png">
      <path
         sodipodi:nodetypes="ccccc"
         inkscape:connector-curvature="0"
         id="path3713"
         d="M 6.614583,1.9895833 11.90625,3.3125 9.2604163,4.6354167 11.90625,5.9583333 6.614583,7.28125"
         style="color:#000000;display:inline;overflow:visible;visibility:visible;fill:none;fill-rule:evenodd;stroke:#ffffff;stroke-width:0.6263274;stroke-linecap:round;stroke-linejoin:round;stroke-miterlimit:4;stroke-dasharray:none;stroke-dashoffset:0;stroke-opacity:1;marker:none;marker-start:none;marker-mid:none;marker-end:none;enable-background:accumulate" />
    </g>
    <g
       id="g4685"
       transform="matrix(4.7898273,0,0,4.7898273,-39.974426,-30.107558)"
       inkscape:export-xdpi="12.54"
       inkscape:export-ydpi="12.54"
       style="stroke:#ffffff;stroke-width:0.6263274;stroke-linecap:round;stroke-linejoin:round;stroke-miterlimit:4;stroke-dasharray:none;stroke-opacity:1"
       inkscape:export-filename="/home/warr/.minetest/games/nodecore/mods/nc_writing/textures/nc_writing_glyph_odo.png">
      <path
         inkscape:connector-curvature="0"
         id="path3715"
         d="m 11.90625,1.9895833 h 5.291666 l -2.645833,5.2916666 z"
         style="color:#000000;display:inline;overflow:visible;visibility:visible;fill:none;fill-rule:evenodd;stroke:#ffffff;stroke-width:0.6263274;stroke-linecap:round;stroke-linejoin:round;stroke-miterlimit:4;stroke-dasharray:none;stroke-dashoffset:0;stroke-opacity:1;marker:none;marker-start:none;marker-mid:none;marker-end:none;enable-background:accumulate" />
    </g>
    <g
       id="g4690"
       transform="matrix(4.7898273,0,0,4.7898273,-33.637887,-30.107558)"
       inkscape:export-xdpi="12.526019"
       inkscape:export-ydpi="12.526019"
       style="stroke:#ffffff;stroke-width:0.62632738;stroke-linecap:round;stroke-linejoin:round;stroke-miterlimit:4;stroke-dasharray:none;stroke-opacity:1"
       inkscape:export-filename="/home/warr/.minetest/games/nodecore/mods/nc_writing/textures/nc_writing_glyph_fot.png">
      <path
         inkscape:connector-curvature="0"
         id="path3717"
         d="M 22.489583,1.9895833 H 17.197916 L 19.84375,7.2812499"
         style="color:#000000;display:inline;overflow:visible;visibility:visible;fill:none;fill-rule:evenodd;stroke:#ffffff;stroke-width:0.62632738;stroke-linecap:round;stroke-linejoin:round;stroke-miterlimit:4;stroke-dasharray:none;stroke-dashoffset:0;stroke-opacity:1;marker:none;marker-start:none;marker-mid:none;marker-end:none;enable-background:accumulate" />
      <path
         inkscape:connector-curvature="0"
         id="path3719"
         d="M 17.197916,4.6354166 H 19.84375"
         style="color:#000000;display:inline;overflow:visible;visibility:visible;fill:none;fill-rule:evenodd;stroke:#ffffff;stroke-width:0.62632738;stroke-linecap:round;stroke-linejoin:round;stroke-miterlimit:4;stroke-dasharray:none;stroke-dashoffset:0;stroke-opacity:1;marker:none;marker-start:none;marker-mid:none;marker-end:none;enable-background:accumulate" />
    </g>
    <g
       id="g4695"
       transform="matrix(4.7898273,0,0,4.7898273,-154.03219,1.5750914)"
       inkscape:export-xdpi="12.535497"
       inkscape:export-ydpi="12.535497"
       style="stroke:#ffffff;stroke-width:0.6263274;stroke-linecap:round;stroke-linejoin:round;stroke-miterlimit:4;stroke-dasharray:none;stroke-opacity:1"
       inkscape:export-filename="/home/warr/.minetest/games/nodecore/mods/nc_writing/textures/nc_writing_glyph_geq.png">
      <path
         sodipodi:nodetypes="cccc"
         inkscape:connector-curvature="0"
         id="path4541"
         d="M 27.78125,1.9895833 H 22.489583 L 25.135416,7.2812499 26.458333,3.3125"
         style="color:#000000;display:inline;overflow:visible;visibility:visible;fill:none;fill-rule:evenodd;stroke:#ffffff;stroke-width:0.6263274;stroke-linecap:round;stroke-linejoin:round;stroke-miterlimit:4;stroke-dasharray:none;stroke-dashoffset:0;stroke-opacity:1;marker:none;marker-start:none;marker-mid:none;marker-end:none;enable-background:accumulate" />
      <path
         inkscape:connector-curvature="0"
         id="path4543"
         d="M 25.135416,3.3124999 H 27.78125"
         style="color:#000000;display:inline;overflow:visible;visibility:visible;fill:none;fill-rule:evenodd;stroke:#ffffff;stroke-width:0.6263274;stroke-linecap:round;stroke-linejoin:round;stroke-miterlimit:4;stroke-dasharray:none;stroke-dashoffset:0;stroke-opacity:1;marker:none;marker-start:none;marker-mid:none;marker-end:none;enable-background:accumulate" />
    </g>
    <g
       id="g4704"
       transform="matrix(4.7898273,0,0,4.7898273,-147.69565,1.5750914)"
       inkscape:export-xdpi="12.538836"
       inkscape:export-ydpi="12.538836"
       style="stroke:#ffffff;stroke-width:0.6263274;stroke-linecap:round;stroke-linejoin:round;stroke-miterlimit:4;stroke-dasharray:none;stroke-opacity:1"
       inkscape:export-filename="/home/warr/.minetest/games/nodecore/mods/nc_writing/textures/nc_writing_glyph_niz.png">
      <path
         inkscape:connector-curvature="0"
         id="path4560"
         d="M 27.78125,5.9583332 29.104168,1.9895833 31.750001,7.28125 33.072916,3.3124999"
         style="color:#000000;display:inline;overflow:visible;visibility:visible;fill:none;fill-rule:evenodd;stroke:#ffffff;stroke-width:0.6263274;stroke-linecap:round;stroke-linejoin:round;stroke-miterlimit:4;stroke-dasharray:none;stroke-dashoffset:0;stroke-opacity:1;marker:none;marker-start:none;marker-mid:none;marker-end:none;enable-background:accumulate"
         sodipodi:nodetypes="cccc" />
    </g>
    <g
       id="g4710"
       transform="matrix(4.7898273,0,0,4.7898273,-141.35911,1.5750914)"
       inkscape:export-xdpi="12.526026"
       inkscape:export-ydpi="12.526026"
       style="stroke:#ffffff;stroke-width:0.6263274;stroke-linecap:round;stroke-linejoin:round;stroke-miterlimit:4;stroke-dasharray:none;stroke-opacity:1"
       inkscape:export-filename="/home/warr/.minetest/games/nodecore/mods/nc_writing/textures/nc_writing_glyph_yit.png">
      <path
         inkscape:connector-curvature="0"
         id="path4577"
         d="m 33.072916,7.2812499 h 5.291667"
         style="color:#000000;display:inline;overflow:visible;visibility:visible;fill:none;fill-rule:evenodd;stroke:#ffffff;stroke-width:0.6263274;stroke-linecap:round;stroke-linejoin:round;stroke-miterlimit:4;stroke-dasharray:none;stroke-dashoffset:0;stroke-opacity:1;marker:none;marker-start:none;marker-mid:none;marker-end:none;enable-background:accumulate" />
      <path
         inkscape:connector-curvature="0"
         id="path4579"
         d="M 38.364583,1.9895833 35.71875,4.6354166 33.072916,1.9895833"
         style="color:#000000;display:inline;overflow:visible;visibility:visible;fill:none;fill-rule:evenodd;stroke:#ffffff;stroke-width:0.6263274;stroke-linecap:round;stroke-linejoin:round;stroke-miterlimit:4;stroke-dasharray:none;stroke-dashoffset:0;stroke-opacity:1;marker:none;marker-start:none;marker-mid:none;marker-end:none;enable-background:accumulate" />
      <path
         inkscape:connector-curvature="0"
         id="path4581"
         d="M 35.71875,4.6354166 V 7.2812499"
         style="color:#000000;display:inline;overflow:visible;visibility:visible;fill:none;fill-rule:evenodd;stroke:#ffffff;stroke-width:0.6263274;stroke-linecap:round;stroke-linejoin:round;stroke-miterlimit:4;stroke-dasharray:none;stroke-dashoffset:0;stroke-opacity:1;marker:none;marker-start:none;marker-mid:none;marker-end:none;enable-background:accumulate" />
    </g>
    <g
       transform="matrix(-4.7898273,0,0,-4.7898273,257.84306,45.980783)"
       id="g4714-4-8-4-9"
       inkscape:export-xdpi="12.538301"
       inkscape:export-ydpi="12.538301"
       style="stroke:#ffffff;stroke-width:0.6263274;stroke-linecap:round;stroke-linejoin:round;stroke-miterlimit:4;stroke-dasharray:none;stroke-opacity:1"
       inkscape:export-filename="/home/warr/.minetest/games/nodecore/mods/nc_writing/textures/nc_writing_glyph_prx.png">
      <path
         inkscape:connector-curvature="0"
         id="path4598-4-4-4-1"
         d="m 38.364583,7.2812499 5.291666,-5.2916666 h -5.291666 l 2.645833,2.6458334 V 7.28125"
         style="color:#000000;display:inline;overflow:visible;visibility:visible;fill:none;fill-rule:evenodd;stroke:#ffffff;stroke-width:0.6263274;stroke-linecap:round;stroke-linejoin:round;stroke-miterlimit:4;stroke-dasharray:none;stroke-dashoffset:0;stroke-opacity:1;marker:none;marker-start:none;marker-mid:none;marker-end:none;enable-background:accumulate"
         sodipodi:nodetypes="ccccc" />
    </g>
  </g>
</svg>
